…
# Import of Data
The original data was provided by John Earling in a work book entitled 'Weekly PayPay & Tithes .xls' workbook.  The layout/format of that workbook was not conducive to easily loading into R [nor JMP originally] and so was transcribed into the workbook 'Giving Data.xlsx' and then read into R.


```r
source("../code/0-Extract data from Excel.R")
df  # This is the data frame resulting from the import.
```

```
## # A tibble: 469 x 7
##    week.ending         month   year paypal offering  total monthly.giving.~
##    <dttm>              <chr>  <dbl>  <dbl>    <dbl>  <dbl>            <dbl>
##  1 2010-01-03 00:00:00 Janua~  2010     75    1560   1635                NA
##  2 2010-01-10 00:00:00 Janua~  2010    575    3129   3704                NA
##  3 2010-01-17 00:00:00 Janua~  2010    475    2025   2500                NA
##  4 2010-01-24 00:00:00 Janua~  2010     75    1180.  1255.               NA
##  5 2010-01-31 00:00:00 Janua~  2010   2180    2967.  5147.               45
##  6 2010-02-07 00:00:00 Febru~  2010     75    4722.  4798.               NA
##  7 2010-02-14 00:00:00 Febru~  2010    585    2925   3510                NA
##  8 2010-02-21 00:00:00 Febru~  2010    200    3299   3499                NA
##  9 2010-02-28 00:00:00 Febru~  2010   6350    4281  10631                41
## 10 2010-03-07 00:00:00 March   2010    770    1170   1940                NA
## # ... with 459 more rows
```
…
